{
    "openapi": "3.0.0",
    "info": {
        "title": "Print4Help",
        "description": "This is an awesome app!",
        "version": "0.0.1"
    },
    "paths": {
        "\/user\/settings\/change-email": {
            "post": {
                "tags": [
                    "Account"
                ],
                "operationId": null,
                "requestBody": {
                    "required": true,
                    "content": {
                        "application\/json": {
                            "schema": {
                                "$ref": "#\/components\/schemas\/UserEmailChangeRequest"
                            }
                        }
                    }
                },
                "responses": {
                    "200": {
                        "description": "Request an E-Mail with a token to change a User's E-Mail Address",
                        "content": {
                            "application\/json": {
                                "schema": {
                                    "$ref": "#\/components\/schemas\/DefaultResponse"
                                }
                            }
                        }
                    }
                },
                "security": [
                    {
                        "Bearer": []
                    }
                ]
            }
        },
        "\/user\/settings\/change-email-finish": {
            "post": {
                "tags": [
                    "Account"
                ],
                "operationId": null,
                "requestBody": {
                    "required": true,
                    "content": {
                        "application\/json": {
                            "schema": {
                                "$ref": "#\/components\/schemas\/UserEmailChangeFinishRequest"
                            }
                        }
                    }
                },
                "responses": {
                    "200": {
                        "description": "Finish the User E-Mail Address with the Token",
                        "content": {
                            "application\/json": {
                                "schema": {
                                    "$ref": "#\/components\/schemas\/DefaultResponse"
                                }
                            }
                        }
                    }
                },
                "security": [
                    {
                        "Bearer": []
                    }
                ]
            }
        },
        "\/user\/settings\/change-password": {
            "post": {
                "tags": [
                    "Account"
                ],
                "operationId": null,
                "requestBody": {
                    "required": true,
                    "content": {
                        "application\/json": {
                            "schema": {
                                "$ref": "#\/components\/schemas\/UserPasswordChange"
                            }
                        }
                    }
                },
                "responses": {
                    "200": {
                        "description": "Change a User password",
                        "content": {
                            "application\/json": {
                                "schema": {
                                    "$ref": "#\/components\/schemas\/DefaultResponse"
                                }
                            }
                        }
                    }
                },
                "security": [
                    {
                        "Bearer": []
                    }
                ]
            }
        },
        "\/password\/recovery": {
            "post": {
                "tags": [
                    "Account"
                ],
                "operationId": null,
                "requestBody": {
                    "required": true,
                    "content": {
                        "application\/json": {
                            "schema": {
                                "$ref": "#\/components\/schemas\/UserPasswordRecoveryRequest"
                            }
                        }
                    }
                },
                "responses": {
                    "200": {
                        "description": "Request an E-Mail to change the User's password",
                        "content": {
                            "application\/json": {
                                "schema": {
                                    "$ref": "#\/components\/schemas\/DefaultResponse"
                                }
                            }
                        }
                    }
                }
            }
        },
        "\/password\/reset": {
            "post": {
                "tags": [
                    "Account"
                ],
                "operationId": null,
                "requestBody": {
                    "required": true,
                    "content": {
                        "application\/json": {
                            "schema": {
                                "$ref": "#\/components\/schemas\/UserPasswordRecoveryFinishRequest"
                            }
                        }
                    }
                },
                "responses": {
                    "200": {
                        "description": "Finish user password recovery with token",
                        "content": {
                            "application\/json": {
                                "schema": {
                                    "$ref": "#\/components\/schemas\/DefaultResponse"
                                }
                            }
                        }
                    },
                    "422": {
                        "description": "Validation Errors",
                        "content": {
                            "application\/json": {
                                "schema": {
                                    "$ref": "#\/components\/schemas\/DefaultResponse"
                                }
                            }
                        }
                    }
                }
            }
        },
        "\/registration": {
            "post": {
                "tags": [
                    "Account"
                ],
                "operationId": null,
                "requestBody": {
                    "required": true,
                    "content": {
                        "application\/json": {
                            "schema": {
                                "$ref": "#\/components\/schemas\/UserRegistrationRequest"
                            }
                        }
                    }
                },
                "responses": {
                    "201": {
                        "description": "Register a new User",
                        "content": {
                            "application\/json": {
                                "schema": {
                                    "$ref": "#\/components\/schemas\/DefaultResponse"
                                }
                            }
                        }
                    },
                    "422": {
                        "description": "Validation Errors",
                        "content": {
                            "application\/json": {
                                "schema": {
                                    "$ref": "#\/components\/schemas\/DefaultResponse"
                                }
                            }
                        }
                    }
                }
            }
        },
        "\/registration\/finish": {
            "post": {
                "tags": [
                    "Account"
                ],
                "operationId": null,
                "requestBody": {
                    "required": true,
                    "content": {
                        "application\/json": {
                            "schema": {
                                "$ref": "#\/components\/schemas\/UserRegistrationFinishRequest"
                            }
                        }
                    }
                },
                "responses": {
                    "200": {
                        "description": "Finish user registration with token",
                        "content": {
                            "application\/json": {
                                "schema": {
                                    "$ref": "#\/components\/schemas\/DefaultResponse"
                                }
                            }
                        }
                    },
                    "422": {
                        "description": "Validation Errors",
                        "content": {
                            "application\/json": {
                                "schema": {
                                    "$ref": "#\/components\/schemas\/DefaultResponse"
                                }
                            }
                        }
                    }
                }
            }
        },
        "\/user\/cart\/add-piece": {
            "post": {
                "tags": [
                    "Cart"
                ],
                "operationId": null,
                "requestBody": {
                    "required": true,
                    "content": {
                        "application\/json": {
                            "schema": {
                                "$ref": "#\/components\/schemas\/AddPieceToCartRequest"
                            }
                        }
                    }
                },
                "responses": {
                    "201": {
                        "description": "The updated Cart",
                        "content": {
                            "application\/json": {
                                "schema": {
                                    "properties": {
                                        "data": {
                                            "$ref": "#\/components\/schemas\/Cart"
                                        }
                                    },
                                    "type": "object"
                                }
                            }
                        }
                    }
                },
                "security": [
                    {
                        "Bearer": []
                    }
                ]
            }
        },
        "\/user\/cart\/change-piece-quantity": {
            "post": {
                "tags": [
                    "Cart"
                ],
                "operationId": null,
                "requestBody": {
                    "required": true,
                    "content": {
                        "application\/json": {
                            "schema": {
                                "$ref": "#\/components\/schemas\/ChangePieceQuantityRequest"
                            }
                        }
                    }
                },
                "responses": {
                    "201": {
                        "description": "The updated Cart",
                        "content": {
                            "application\/json": {
                                "schema": {
                                    "properties": {
                                        "data": {
                                            "$ref": "#\/components\/schemas\/Cart"
                                        }
                                    },
                                    "type": "object"
                                }
                            }
                        }
                    }
                },
                "security": [
                    {
                        "Bearer": []
                    }
                ]
            }
        },
        "\/user\/cart\/remove-piece": {
            "post": {
                "tags": [
                    "Cart"
                ],
                "operationId": null,
                "requestBody": {
                    "required": true,
                    "content": {
                        "application\/json": {
                            "schema": {
                                "$ref": "#\/components\/schemas\/RemovePieceFromCartRequest"
                            }
                        }
                    }
                },
                "responses": {
                    "201": {
                        "description": "The updated Cart",
                        "content": {
                            "application\/json": {
                                "schema": {
                                    "properties": {
                                        "data": {
                                            "$ref": "#\/components\/schemas\/Cart"
                                        }
                                    },
                                    "type": "object"
                                }
                            }
                        }
                    }
                },
                "security": [
                    {
                        "Bearer": []
                    }
                ]
            }
        },
        "\/user\/cart\/submit": {
            "post": {
                "tags": [
                    "Cart"
                ],
                "operationId": null,
                "responses": {
                    "201": {
                        "description": "Submit the Cart and open an Inquiry",
                        "content": {
                            "application\/json": {
                                "schema": {
                                    "properties": {
                                        "data": {
                                            "$ref": "#\/components\/schemas\/DefaultResponse"
                                        }
                                    },
                                    "type": "object"
                                }
                            }
                        }
                    }
                },
                "security": [
                    {
                        "Bearer": []
                    }
                ]
            }
        },
        "\/user\/cart\/update-cart-item-metadata": {
            "post": {
                "tags": [
                    "Cart"
                ],
                "operationId": null,
                "requestBody": {
                    "required": true,
                    "content": {
                        "application\/json": {
                            "schema": {
                                "$ref": "#\/components\/schemas\/UpdateCartItemMetadataRequest"
                            }
                        }
                    }
                },
                "responses": {
                    "201": {
                        "description": "The updated Cart",
                        "content": {
                            "application\/json": {
                                "schema": {
                                    "properties": {
                                        "data": {
                                            "$ref": "#\/components\/schemas\/Cart"
                                        }
                                    },
                                    "type": "object"
                                }
                            }
                        }
                    }
                },
                "security": [
                    {
                        "Bearer": []
                    }
                ]
            }
        },
        "\/category\/list": {
            "get": {
                "tags": [
                    "Category"
                ],
                "operationId": null,
                "responses": {
                    "200": {
                        "description": "List of all Categories",
                        "content": {
                            "application\/json": {
                                "schema": {
                                    "properties": {
                                        "categories": {
                                            "type": "array",
                                            "items": {
                                                "properties": {
                                                    "id": {
                                                        "type": "string",
                                                        "example": "art-design"
                                                    },
                                                    "name": {
                                                        "type": "string",
                                                        "example": "Art & Design"
                                                    },
                                                    "description": {
                                                        "type": "string",
                                                        "example": "A nice description of the category"
                                                    },
                                                    "children": {
                                                        "type": "array",
                                                        "items": {
                                                            "properties": {
                                                                "id": {
                                                                    "type": "string",
                                                                    "example": "art-designn.sculptures"
                                                                },
                                                                "name": {
                                                                    "type": "string",
                                                                    "example": "Scultptures"
                                                                },
                                                                "description": {
                                                                    "type": "string",
                                                                    "example": "A nice description of the category"
                                                                }
                                                            },
                                                            "type": "object"
                                                        }
                                                    }
                                                },
                                                "type": "object"
                                            }
                                        }
                                    },
                                    "type": "object"
                                }
                            }
                        }
                    }
                }
            }
        },
        "\/chat\/list-my": {
            "get": {
                "tags": [
                    "Chat"
                ],
                "operationId": null,
                "responses": {
                    "201": {
                        "description": "The sent message",
                        "content": {
                            "application\/json": {
                                "schema": {
                                    "properties": {
                                        "data": {
                                            "type": "array",
                                            "items": {
                                                "$ref": "#\/components\/schemas\/Message"
                                            }
                                        }
                                    },
                                    "type": "object"
                                }
                            }
                        }
                    }
                },
                "security": [
                    {
                        "Bearer": []
                    }
                ]
            }
        },
        "\/chat\/read\/{uuid}": {
            "get": {
                "tags": [
                    "Chat"
                ],
                "operationId": null,
                "parameters": [
                    {
                        "name": "uuid",
                        "in": "path",
                        "description": "the uuid of the chat",
                        "required": true,
                        "schema": {
                            "type": "string"
                        }
                    }
                ],
                "responses": {
                    "200": {
                        "description": "The Chat with all messages",
                        "content": {
                            "application\/json": {
                                "schema": {
                                    "properties": {
                                        "data": {
                                            "$ref": "#\/components\/schemas\/Chat"
                                        }
                                    },
                                    "type": "object"
                                }
                            }
                        }
                    },
                    "404": {
                        "description": "If the chat is not found"
                    },
                    "403": {
                        "description": "Access Denied if the chat does not belong to any of the participants"
                    }
                },
                "security": [
                    {
                        "Bearer": []
                    }
                ]
            }
        },
        "\/chat\/send-message": {
            "post": {
                "tags": [
                    "Chat"
                ],
                "operationId": null,
                "requestBody": {
                    "required": true,
                    "content": {
                        "application\/json": {
                            "schema": {
                                "$ref": "#\/components\/schemas\/SendMessageRequest"
                            }
                        }
                    }
                },
                "responses": {
                    "201": {
                        "description": "The sent message",
                        "content": {
                            "application\/json": {
                                "schema": {
                                    "properties": {
                                        "data": {
                                            "$ref": "#\/components\/schemas\/Message"
                                        }
                                    },
                                    "type": "object"
                                }
                            }
                        }
                    }
                },
                "security": [
                    {
                        "Bearer": []
                    }
                ]
            }
        },
        "\/chat\/update-message\/{uuid}": {
            "post": {
                "tags": [
                    "Chat"
                ],
                "operationId": null,
                "parameters": [
                    {
                        "name": "uuid",
                        "in": "path",
                        "required": true,
                        "schema": {
                            "type": "string"
                        }
                    }
                ],
                "requestBody": {
                    "required": true,
                    "content": {
                        "application\/json": {
                            "schema": {
                                "$ref": "#\/components\/schemas\/UpdateMessageRequest"
                            }
                        }
                    }
                },
                "responses": {
                    "200": {
                        "description": "The updated message",
                        "content": {
                            "application\/json": {
                                "schema": {
                                    "properties": {
                                        "data": {
                                            "$ref": "#\/components\/schemas\/Message"
                                        }
                                    },
                                    "type": "object"
                                }
                            }
                        }
                    }
                },
                "security": [
                    {
                        "Bearer": []
                    }
                ]
            }
        },
        "\/inquiry\/{uuid}\/abort-production": {
            "post": {
                "tags": [
                    "Inquiry"
                ],
                "operationId": null,
                "parameters": [
                    {
                        "name": "uuid",
                        "in": "path",
                        "required": true,
                        "schema": {
                            "type": "string"
                        }
                    }
                ],
                "requestBody": {
                    "required": true,
                    "content": {
                        "application\/json": {
                            "schema": {
                                "$ref": "#\/components\/schemas\/AbortInquiryProductionRequest"
                            }
                        }
                    }
                },
                "responses": {
                    "200": {
                        "description": "Abort the production of the inquiry.",
                        "content": {
                            "application\/json": {
                                "schema": {
                                    "properties": {
                                        "data": {
                                            "$ref": "#\/components\/schemas\/Inquiry"
                                        }
                                    },
                                    "type": "object"
                                }
                            }
                        }
                    }
                },
                "security": [
                    {
                        "Bearer": []
                    }
                ]
            }
        },
        "\/inquiry\/{uuid}\/close": {
            "post": {
                "tags": [
                    "Inquiry"
                ],
                "operationId": null,
                "parameters": [
                    {
                        "name": "uuid",
                        "in": "path",
                        "required": true,
                        "schema": {
                            "type": "string"
                        }
                    }
                ],
                "requestBody": {
                    "required": true,
                    "content": {
                        "application\/json": {
                            "schema": {
                                "$ref": "#\/components\/schemas\/CloseInquiryRequest"
                            }
                        }
                    }
                },
                "responses": {
                    "200": {
                        "description": "Close the inquiry and remove it from the market.",
                        "content": {
                            "application\/json": {
                                "schema": {
                                    "properties": {
                                        "data": {
                                            "$ref": "#\/components\/schemas\/Inquiry"
                                        }
                                    },
                                    "type": "object"
                                }
                            }
                        }
                    }
                },
                "security": [
                    {
                        "Bearer": []
                    }
                ]
            }
        },
        "\/inquiry\/{uuid}\/finish-production": {
            "post": {
                "tags": [
                    "Inquiry"
                ],
                "operationId": null,
                "parameters": [
                    {
                        "name": "uuid",
                        "in": "path",
                        "required": true,
                        "schema": {
                            "type": "string"
                        }
                    }
                ],
                "requestBody": {
                    "required": true,
                    "content": {
                        "application\/json": {
                            "schema": {
                                "$ref": "#\/components\/schemas\/StartInquiryProductionRequest"
                            }
                        }
                    }
                },
                "responses": {
                    "200": {
                        "description": "Finish the production of the inquiry.",
                        "content": {
                            "application\/json": {
                                "schema": {
                                    "properties": {
                                        "data": {
                                            "$ref": "#\/components\/schemas\/Inquiry"
                                        }
                                    },
                                    "type": "object"
                                }
                            }
                        }
                    }
                },
                "security": [
                    {
                        "Bearer": []
                    }
                ]
            }
        },
        "\/inquiry\/{uuid}\/detail": {
            "get": {
                "tags": [
                    "Inquiry"
                ],
                "operationId": null,
                "parameters": [
                    {
                        "name": "uuid",
                        "in": "path",
                        "required": true,
                        "schema": {
                            "type": "string"
                        }
                    }
                ],
                "responses": {
                    "200": {
                        "description": "Get details of an inquiry",
                        "content": {
                            "application\/json": {
                                "schema": {
                                    "properties": {
                                        "data": {
                                            "$ref": "#\/components\/schemas\/Inquiry"
                                        }
                                    },
                                    "type": "object"
                                }
                            }
                        }
                    }
                },
                "security": [
                    {
                        "Bearer": []
                    }
                ]
            }
        },
        "\/inquiry\/list": {
            "get": {
                "tags": [
                    "Inquiry"
                ],
                "operationId": null,
                "responses": {
                    "200": {
                        "description": "List of all Inquiries",
                        "content": {
                            "application\/json": {
                                "schema": {
                                    "properties": {
                                        "data": {
                                            "type": "array",
                                            "items": {
                                                "$ref": "#\/components\/schemas\/Inquiry"
                                            }
                                        }
                                    },
                                    "type": "object"
                                }
                            }
                        }
                    }
                }
            }
        },
        "\/inquiry\/list-my": {
            "get": {
                "tags": [
                    "Inquiry"
                ],
                "operationId": null,
                "responses": {
                    "200": {
                        "description": "List of all Inquiries",
                        "content": {
                            "application\/json": {
                                "schema": {
                                    "properties": {
                                        "data": {
                                            "type": "array",
                                            "items": {
                                                "$ref": "#\/components\/schemas\/Inquiry"
                                            }
                                        }
                                    },
                                    "type": "object"
                                }
                            }
                        }
                    }
                },
                "security": [
                    {
                        "Bearer": []
                    }
                ]
            }
        },
        "\/inquiry\/{uuid}\/receive": {
            "post": {
                "tags": [
                    "Inquiry"
                ],
                "operationId": null,
                "parameters": [
                    {
                        "name": "uuid",
                        "in": "path",
                        "required": true,
                        "schema": {
                            "type": "string"
                        }
                    }
                ],
                "requestBody": {
                    "required": true,
                    "content": {
                        "application\/json": {
                            "schema": {
                                "$ref": "#\/components\/schemas\/ReceiveInquiryRequest"
                            }
                        }
                    }
                },
                "responses": {
                    "200": {
                        "description": "Receive the shipped & produced inquiry.",
                        "content": {
                            "application\/json": {
                                "schema": {
                                    "properties": {
                                        "data": {
                                            "$ref": "#\/components\/schemas\/Inquiry"
                                        }
                                    },
                                    "type": "object"
                                }
                            }
                        }
                    }
                },
                "security": [
                    {
                        "Bearer": []
                    }
                ]
            }
        },
        "\/inquiry\/{uuid}\/ship": {
            "post": {
                "tags": [
                    "Inquiry"
                ],
                "operationId": null,
                "parameters": [
                    {
                        "name": "uuid",
                        "in": "path",
                        "required": true,
                        "schema": {
                            "type": "string"
                        }
                    }
                ],
                "requestBody": {
                    "required": true,
                    "content": {
                        "application\/json": {
                            "schema": {
                                "$ref": "#\/components\/schemas\/ShipInquiryRequest"
                            }
                        }
                    }
                },
                "responses": {
                    "200": {
                        "description": "Ship the produced inquiry.",
                        "content": {
                            "application\/json": {
                                "schema": {
                                    "properties": {
                                        "data": {
                                            "$ref": "#\/components\/schemas\/Inquiry"
                                        }
                                    },
                                    "type": "object"
                                }
                            }
                        }
                    }
                },
                "security": [
                    {
                        "Bearer": []
                    }
                ]
            }
        },
        "\/inquiry\/{uuid}\/start-production": {
            "post": {
                "tags": [
                    "Inquiry"
                ],
                "operationId": null,
                "parameters": [
                    {
                        "name": "uuid",
                        "in": "path",
                        "required": true,
                        "schema": {
                            "type": "string"
                        }
                    }
                ],
                "requestBody": {
                    "required": true,
                    "content": {
                        "application\/json": {
                            "schema": {
                                "$ref": "#\/components\/schemas\/StartInquiryProductionRequest"
                            }
                        }
                    }
                },
                "responses": {
                    "200": {
                        "description": "Start the production of the inquiry.",
                        "content": {
                            "application\/json": {
                                "schema": {
                                    "properties": {
                                        "data": {
                                            "$ref": "#\/components\/schemas\/Inquiry"
                                        }
                                    },
                                    "type": "object"
                                }
                            }
                        }
                    }
                },
                "security": [
                    {
                        "Bearer": []
                    }
                ]
            }
        },
        "\/inquiry\/{uuid}\/update": {
            "post": {
                "tags": [
                    "Inquiry"
                ],
                "operationId": null,
                "parameters": [
                    {
                        "name": "uuid",
                        "in": "path",
                        "required": true,
                        "schema": {
                            "type": "string"
                        }
                    }
                ],
                "requestBody": {
                    "required": true,
                    "content": {
                        "application\/json": {
                            "schema": {
                                "$ref": "#\/components\/schemas\/UpdateInquiryMetadataRequest"
                            }
                        }
                    }
                },
                "responses": {
                    "200": {
                        "description": "The updated Inquiry with its new metadata",
                        "content": {
                            "application\/json": {
                                "schema": {
                                    "properties": {
                                        "data": {
                                            "$ref": "#\/components\/schemas\/Inquiry"
                                        }
                                    },
                                    "type": "object"
                                }
                            }
                        }
                    }
                },
                "security": [
                    {
                        "Bearer": []
                    }
                ]
            }
        },
        "\/offer\/{uuid}\/accept": {
            "post": {
                "tags": [
                    "Offer"
                ],
                "operationId": null,
                "parameters": [
                    {
                        "name": "uuid",
                        "in": "path",
                        "required": true,
                        "schema": {
                            "type": "string"
                        }
                    }
                ],
                "requestBody": {
                    "required": true,
                    "content": {
                        "application\/json": {
                            "schema": {
                                "$ref": "#\/components\/schemas\/ChangeOfferRequest"
                            }
                        }
                    }
                },
                "responses": {
                    "200": {
                        "description": "Accept one of the offers from your Inquiry",
                        "content": {
                            "application\/json": {
                                "schema": {
                                    "properties": {
                                        "data": {
                                            "$ref": "#\/components\/schemas\/Offer"
                                        }
                                    },
                                    "type": "object"
                                }
                            }
                        }
                    }
                },
                "security": [
                    {
                        "Bearer": []
                    }
                ]
            }
        },
        "\/offer\/{uuid}\/change": {
            "post": {
                "tags": [
                    "Offer"
                ],
                "operationId": null,
                "parameters": [
                    {
                        "name": "uuid",
                        "in": "path",
                        "required": true,
                        "schema": {
                            "type": "string"
                        }
                    }
                ],
                "requestBody": {
                    "required": true,
                    "content": {
                        "application\/json": {
                            "schema": {
                                "$ref": "#\/components\/schemas\/ChangeOfferRequest"
                            }
                        }
                    }
                },
                "responses": {
                    "200": {
                        "description": "Change your offer of an Inquiry",
                        "content": {
                            "application\/json": {
                                "schema": {
                                    "properties": {
                                        "data": {
                                            "$ref": "#\/components\/schemas\/Offer"
                                        }
                                    },
                                    "type": "object"
                                }
                            }
                        }
                    }
                },
                "security": [
                    {
                        "Bearer": []
                    }
                ]
            }
        },
        "\/offer\/create": {
            "post": {
                "tags": [
                    "Offer"
                ],
                "operationId": null,
                "requestBody": {
                    "required": true,
                    "content": {
                        "application\/json": {
                            "schema": {
                                "$ref": "#\/components\/schemas\/CreateOfferRequest"
                            }
                        }
                    }
                },
                "responses": {
                    "201": {
                        "description": "Submit an Offer for an Inquiry",
                        "content": {
                            "application\/json": {
                                "schema": {
                                    "properties": {
                                        "data": {
                                            "$ref": "#\/components\/schemas\/Offer"
                                        }
                                    },
                                    "type": "object"
                                }
                            }
                        }
                    }
                },
                "security": [
                    {
                        "Bearer": []
                    }
                ]
            }
        },
        "\/offer\/list-my": {
            "get": {
                "tags": [
                    "Offer"
                ],
                "operationId": null,
                "responses": {
                    "200": {
                        "description": "List of all my offers",
                        "content": {
                            "application\/json": {
                                "schema": {
                                    "properties": {
                                        "data": {
                                            "type": "array",
                                            "items": {
                                                "$ref": "#\/components\/schemas\/Offer"
                                            }
                                        }
                                    },
                                    "type": "object"
                                }
                            }
                        }
                    }
                },
                "security": [
                    {
                        "Bearer": []
                    }
                ]
            }
        },
        "\/offer\/{uuid}\/withdraw": {
            "post": {
                "tags": [
                    "Offer"
                ],
                "operationId": null,
                "parameters": [
                    {
                        "name": "uuid",
                        "in": "path",
                        "required": true,
                        "schema": {
                            "type": "string"
                        }
                    }
                ],
                "requestBody": {
                    "required": true,
                    "content": {
                        "application\/json": {
                            "schema": {
                                "$ref": "#\/components\/schemas\/WithdrawOfferRequest"
                            }
                        }
                    }
                },
                "responses": {
                    "200": {
                        "description": "Withdraw your offer from an Inquiry",
                        "content": {
                            "application\/json": {
                                "schema": {
                                    "properties": {
                                        "data": {
                                            "$ref": "#\/components\/schemas\/Offer"
                                        }
                                    },
                                    "type": "object"
                                }
                            }
                        }
                    }
                },
                "security": [
                    {
                        "Bearer": []
                    }
                ]
            }
        },
        "\/piece\/{uuid}\/approve": {
            "post": {
                "tags": [
                    "Piece"
                ],
                "operationId": null,
                "parameters": [
                    {
                        "name": "uuid",
                        "in": "path",
                        "required": true,
                        "schema": {
                            "type": "string"
                        }
                    }
                ],
                "requestBody": {
                    "required": true,
                    "content": {
                        "application\/json": {
                            "schema": {
                                "$ref": "#\/components\/schemas\/ApprovePieceRequest"
                            }
                        }
                    }
                },
                "responses": {
                    "200": {
                        "description": "Approve a Piece that was requested for review.",
                        "content": {
                            "application\/json": {
                                "schema": {
                                    "properties": {
                                        "data": {
                                            "$ref": "#\/components\/schemas\/Piece"
                                        }
                                    },
                                    "type": "object"
                                }
                            }
                        }
                    }
                },
                "security": [
                    {
                        "Bearer": []
                    }
                ]
            }
        },
        "\/piece\/{uuid}\/block": {
            "post": {
                "tags": [
                    "Piece"
                ],
                "operationId": null,
                "parameters": [
                    {
                        "name": "uuid",
                        "in": "path",
                        "required": true,
                        "schema": {
                            "type": "string"
                        }
                    }
                ],
                "requestBody": {
                    "required": true,
                    "content": {
                        "application\/json": {
                            "schema": {
                                "$ref": "#\/components\/schemas\/BlockPieceRequest"
                            }
                        }
                    }
                },
                "responses": {
                    "200": {
                        "description": "Block a Piece and exclude it from everywhere.",
                        "content": {
                            "application\/json": {
                                "schema": {
                                    "properties": {
                                        "data": {
                                            "$ref": "#\/components\/schemas\/DefaultResponse"
                                        }
                                    },
                                    "type": "object"
                                }
                            }
                        }
                    }
                },
                "security": [
                    {
                        "Bearer": []
                    }
                ]
            }
        },
        "\/piece\/create": {
            "post": {
                "tags": [
                    "Piece"
                ],
                "operationId": null,
                "requestBody": {
                    "required": true,
                    "content": {
                        "application\/json": {
                            "schema": {
                                "$ref": "#\/components\/schemas\/CreatePieceRequest"
                            }
                        }
                    }
                },
                "responses": {
                    "201": {
                        "description": "The created Piece",
                        "content": {
                            "application\/json": {
                                "schema": {
                                    "properties": {
                                        "data": {
                                            "$ref": "#\/components\/schemas\/Piece"
                                        }
                                    },
                                    "type": "object"
                                }
                            }
                        }
                    }
                },
                "security": [
                    {
                        "Bearer": []
                    }
                ]
            }
        },
        "\/piece\/{articleNumber}\/detail": {
            "get": {
                "tags": [
                    "Piece"
                ],
                "operationId": null,
                "parameters": [
                    {
                        "name": "articleNumber",
                        "in": "path",
                        "required": true,
                        "schema": {
                            "type": "string"
                        }
                    }
                ],
                "responses": {
                    "200": {
                        "description": "List of all Pieces",
                        "content": {
                            "application\/json": {
                                "schema": {
                                    "properties": {
                                        "data": {
                                            "$ref": "#\/components\/schemas\/Piece"
                                        }
                                    },
                                    "type": "object"
                                }
                            }
                        }
                    }
                }
            }
        },
        "\/piece\/list": {
            "get": {
                "tags": [
                    "Piece"
                ],
                "operationId": null,
                "parameters": [
                    {
                        "name": "categoryIds[]",
                        "in": "query",
                        "description": "Query all pieces that are stored in the given categories",
                        "schema": {
                            "type": "array",
                            "items": {
                                "type": "string"
                            }
                        },
                        "example": "[household.kitchen]"
                    }
                ],
                "responses": {
                    "200": {
                        "description": "List of all Pieces",
                        "content": {
                            "application\/json": {
                                "schema": {
                                    "properties": {
                                        "data": {
                                            "$ref": "#\/components\/schemas\/Piece"
                                        }
                                    },
                                    "type": "object"
                                }
                            }
                        }
                    }
                }
            }
        },
        "\/piece\/{uuid}\/status-history": {
            "get": {
                "tags": [
                    "Piece"
                ],
                "operationId": null,
                "parameters": [
                    {
                        "name": "uuid",
                        "in": "path",
                        "required": true,
                        "schema": {
                            "type": "string"
                        }
                    }
                ],
                "responses": {
                    "200": {
                        "description": "Receive the status history of a Piece.",
                        "content": {
                            "application\/json": {
                                "schema": {
                                    "properties": {
                                        "data": {
                                            "$ref": "#\/components\/schemas\/PieceStatusHistory"
                                        }
                                    },
                                    "type": "object"
                                }
                            }
                        }
                    }
                },
                "security": [
                    {
                        "Bearer": []
                    }
                ]
            }
        },
        "\/piece\/{uuid}\/reject": {
            "post": {
                "tags": [
                    "Piece"
                ],
                "operationId": null,
                "parameters": [
                    {
                        "name": "uuid",
                        "in": "path",
                        "required": true,
                        "schema": {
                            "type": "string"
                        }
                    }
                ],
                "requestBody": {
                    "required": true,
                    "content": {
                        "application\/json": {
                            "schema": {
                                "$ref": "#\/components\/schemas\/RejectPieceRequest"
                            }
                        }
                    }
                },
                "responses": {
                    "200": {
                        "description": "Reject a Piece that was requested for review.",
                        "content": {
                            "application\/json": {
                                "schema": {
                                    "properties": {
                                        "data": {
                                            "$ref": "#\/components\/schemas\/Piece"
                                        }
                                    },
                                    "type": "object"
                                }
                            }
                        }
                    }
                },
                "security": [
                    {
                        "Bearer": []
                    }
                ]
            }
        },
        "\/piece\/{uuid}\/request-review": {
            "post": {
                "tags": [
                    "Piece"
                ],
                "operationId": null,
                "parameters": [
                    {
                        "name": "uuid",
                        "in": "path",
                        "required": true,
                        "schema": {
                            "type": "string"
                        }
                    }
                ],
                "requestBody": {
                    "required": true,
                    "content": {
                        "application\/json": {
                            "schema": {
                                "$ref": "#\/components\/schemas\/RequestReviewRequest"
                            }
                        }
                    }
                },
                "responses": {
                    "200": {
                        "description": "Request a review from Admins for a Piece",
                        "content": {
                            "application\/json": {
                                "schema": {
                                    "properties": {
                                        "data": {
                                            "$ref": "#\/components\/schemas\/Piece"
                                        }
                                    },
                                    "type": "object"
                                }
                            }
                        }
                    }
                },
                "security": [
                    {
                        "Bearer": []
                    }
                ]
            }
        },
        "\/piece\/{uuid}\/update": {
            "post": {
                "tags": [
                    "Piece"
                ],
                "operationId": null,
                "parameters": [
                    {
                        "name": "uuid",
                        "in": "path",
                        "required": true,
                        "schema": {
                            "type": "string"
                        }
                    }
                ],
                "requestBody": {
                    "required": true,
                    "content": {
                        "application\/json": {
                            "schema": {
                                "$ref": "#\/components\/schemas\/UpdateMetadataRequest"
                            }
                        }
                    }
                },
                "responses": {
                    "200": {
                        "description": "The updated Piece with its new metadata",
                        "content": {
                            "application\/json": {
                                "schema": {
                                    "properties": {
                                        "data": {
                                            "$ref": "#\/components\/schemas\/Piece"
                                        }
                                    },
                                    "type": "object"
                                }
                            }
                        }
                    }
                },
                "security": [
                    {
                        "Bearer": []
                    }
                ]
            }
        },
        "\/login": {
            "post": {
                "tags": [
                    "Security"
                ],
                "operationId": null,
                "requestBody": {
                    "required": true,
                    "content": {
                        "application\/json": {
                            "schema": {
                                "$ref": "#\/components\/schemas\/LoginRequest"
                            }
                        }
                    }
                },
                "responses": {
                    "200": {
                        "description": "Login Response with Token",
                        "content": {
                            "application\/json": {
                                "schema": {
                                    "$ref": "#\/components\/schemas\/LoginResponse"
                                }
                            }
                        }
                    },
                    "401": {
                        "description": "Unauthorized failure",
                        "content": {
                            "application\/json": {
                                "schema": {
                                    "$ref": "#\/components\/schemas\/DefaultResponse"
                                }
                            }
                        }
                    },
                    "403": {
                        "description": "Authenticaiton failure",
                        "content": {
                            "application\/json": {
                                "schema": {
                                    "$ref": "#\/components\/schemas\/DefaultResponse"
                                }
                            }
                        }
                    }
                }
            }
        },
        "\/documentation.json": {
            "get": {
                "operationId": null,
                "responses": {
                    "default": {
                        "description": ""
                    }
                }
            }
        }
    },
    "components": {
        "schemas": {
            "UserEmailChangeRequest": {
                "required": [
                    "email",
                    "userId"
                ],
                "properties": {
                    "email": {
                        "type": "string",
                        "maxLength": 255,
                        "example": "john.doe@example.com"
                    },
                    "userId": {
                        "type": "string",
                        "maxLength": 255,
                        "example": "d882da02-76e1-11eb-9439-0242ac130002"
                    }
                },
                "type": "object"
            },
            "DefaultResponse": {
                "properties": {
                    "code": {
                        "type": "integer"
                    },
                    "message": {
                        "type": "string"
                    },
                    "data": {
                        "type": "array",
                        "items": {
                            "type": "string"
                        }
                    }
                },
                "type": "object"
            },
            "UserEmailChangeFinishRequest": {
                "required": [
                    "email",
                    "emailChangeToken"
                ],
                "properties": {
                    "email": {
                        "type": "string",
                        "maxLength": 255,
                        "example": "john.doe@example.com"
                    },
                    "emailChangeToken": {
                        "type": "string",
                        "maxLength": 255,
                        "example": "32cd11ba8c"
                    }
                },
                "type": "object"
            },
            "UserPasswordChange": {
                "required": [
                    "userId",
                    "currentPassword",
                    "newPassword",
                    "newPasswordRepeat"
                ],
                "properties": {
                    "userId": {
                        "type": "string",
                        "maxLength": 255,
                        "example": "d882da02-76e1-11eb-9439-0242ac130002"
                    },
                    "currentPassword": {
                        "type": "string",
                        "maxLength": 255,
                        "example": "Abcdef1!"
                    },
                    "newPassword": {
                        "description": "The Password has to be 8 character, at least 1 Uppercase, 1 Number and 1 special-char",
                        "type": "string",
                        "maxLength": 4096,
                        "minLength": 8,
                        "pattern": "(?=.*\\d)(?=.*[a-z])(?=.*[A-Z])(?=.*[a-zA-Z]).{8,}",
                        "example": "Ghijkl1!"
                    },
                    "newPasswordRepeat": {
                        "description": "The exact same value as for [newPassword]",
                        "type": "string",
                        "maxLength": 255,
                        "example": "Abcdef1!"
                    }
                },
                "type": "object"
            },
            "UserPasswordRecoveryRequest": {
                "required": [
                    "email"
                ],
                "properties": {
                    "email": {
                        "type": "string",
                        "maxLength": 255,
                        "example": "john.doe@example.com"
                    }
                },
                "type": "object"
            },
            "UserPasswordRecoveryFinishRequest": {
                "required": [
                    "token",
                    "newPassword",
                    "newPasswordRepeat"
                ],
                "properties": {
                    "token": {
                        "type": "string",
                        "maxLength": 255,
                        "example": "32cd11ba8c"
                    },
                    "newPassword": {
                        "description": "The Password has to be 8 character, at least 1 Uppercase, 1 Number and 1 special-char",
                        "type": "string",
                        "maxLength": 4096,
                        "minLength": 8,
                        "pattern": "(?=.*\\d)(?=.*[a-z])(?=.*[A-Z])(?=.*[a-zA-Z]).{8,}",
                        "example": "Abcdef1!"
                    },
                    "newPasswordRepeat": {
                        "description": "The exact same value as for [newPassword]",
                        "type": "string",
                        "maxLength": 255,
                        "example": "Abcdef1!"
                    }
                },
                "type": "object"
            },
            "UserRegistrationRequest": {
                "required": [
                    "firstName",
                    "lastName",
                    "email"
                ],
                "properties": {
                    "firstName": {
                        "type": "string",
                        "maxLength": 255,
                        "minLength": 2,
                        "example": "John"
                    },
                    "lastName": {
                        "type": "string",
                        "maxLength": 255,
                        "minLength": 2,
                        "example": "Doe"
                    },
                    "email": {
                        "type": "string",
                        "maxLength": 255,
                        "example": "john.doe@example.com"
                    }
                },
                "type": "object"
            },
            "UserRegistrationFinishRequest": {
                "required": [
                    "registrationToken",
                    "password",
                    "passwordRepeat"
                ],
                "properties": {
                    "registrationToken": {
                        "type": "string",
                        "maxLength": 255,
                        "example": "32cd11ba8c"
                    },
                    "password": {
                        "title": "regex is from https:\/\/regexr.com\/3bfsi\n- 8-chars\n- min 1 Uppercase\n- min 1 Number\n- min 1 special-char\n-> \"Abcdef1!\"",
                        "description": "The Password has to be 8 characters long, at least 1 Uppercase, 1 Number and 1 special-char",
                        "type": "string",
                        "maxLength": 4096,
                        "minLength": 8,
                        "pattern": "(?=.*\\d)(?=.*[a-z])(?=.*[A-Z])(?=.*[a-zA-Z]).{8,}",
                        "example": "Abcdef1!"
                    },
                    "passwordRepeat": {
                        "description": "The exact same value as for [newPassword]",
                        "type": "string",
                        "maxLength": 255,
                        "example": "Abcdef1!"
                    }
                },
                "type": "object"
            },
            "AddPieceToCartRequest": {
                "required": [
                    "pieceId",
                    "quantity"
                ],
                "properties": {
                    "pieceId": {
                        "type": "string",
                        "format": "uuid"
                    },
                    "quantity": {
                        "type": "int",
                        "maximum": 100,
                        "minimum": 1,
                        "example": "5"
                    }
                },
                "type": "object"
            },
            "Cart": {
                "properties": {
                    "id": {
                        "type": "string"
                    },
                    "userId": {
                        "type": "string"
                    },
                    "cartItems": {
                        "type": "array",
                        "items": {
                            "$ref": "#\/components\/schemas\/CartItem"
                        }
                    }
                },
                "type": "object"
            },
            "ChangePieceQuantityRequest": {
                "required": [
                    "pieceId",
                    "quantity"
                ],
                "properties": {
                    "pieceId": {
                        "type": "string",
                        "format": "uuid"
                    },
                    "quantity": {
                        "type": "int",
                        "maximum": 100,
                        "minimum": 0,
                        "example": "5"
                    }
                },
                "type": "object"
            },
            "RemovePieceFromCartRequest": {
                "required": [
                    "pieceId"
                ],
                "properties": {
                    "pieceId": {
                        "type": "string",
                        "format": "uuid"
                    }
                },
                "type": "object"
            },
            "UpdateCartItemMetadataRequest": {
                "required": [
                    "pieceId"
                ],
                "properties": {
                    "pieceId": {
                        "type": "string",
                        "format": "uuid"
                    },
                    "purpose": {
                        "type": "string",
                        "maxLength": 1000,
                        "example": "My old ones broke"
                    },
                    "requirements": {
                        "type": "array",
                        "items": {
                            "type": "string",
                            "maxLength": 1000
                        },
                        "example": "['Color: Red', 'Material: any']"
                    }
                },
                "type": "object"
            },
            "Message": {
                "properties": {
                    "id": {
                        "type": "string"
                    },
                    "chatId": {
                        "type": "string"
                    },
                    "authorId": {
                        "type": "string"
                    },
                    "authorName": {
                        "type": "string"
                    },
                    "body": {
                        "type": "string"
                    },
                    "subject": {
                        "nullable": true,
                        "type": "string"
                    },
                    "createdAt": {
                        "type": "string",
                        "format": "date-time"
                    },
                    "updatedAt": {
                        "type": "string",
                        "format": "date-time"
                    }
                },
                "type": "object"
            },
            "Chat": {
                "properties": {
                    "id": {
                        "type": "string"
                    },
                    "status": {
                        "type": "string"
                    },
                    "offerId": {
                        "type": "string"
                    },
                    "messageIds": {
                        "type": "array",
                        "items": {
                            "type": "string",
                            "example": "uuid"
                        }
                    },
                    "userIds": {
                        "type": "array",
                        "items": {
                            "type": "string",
                            "example": "uuid"
                        }
                    },
                    "messages": {
                        "title": "<array-key, Message>",
                        "type": "array",
                        "items": {
                            "$ref": "#\/components\/schemas\/Message"
                        }
                    },
                    "subject": {
                        "type": "string"
                    },
                    "createdAt": {
                        "type": "string",
                        "format": "date-time"
                    },
                    "updatedAt": {
                        "type": "string",
                        "format": "date-time"
                    },
                    "closedAt": {
                        "type": "string",
                        "format": "date-time"
                    }
                },
                "type": "object"
            },
            "SendMessageRequest": {
                "required": [
                    "chatId",
                    "message"
                ],
                "properties": {
                    "chatId": {
                        "type": "string",
                        "format": "uuid"
                    },
                    "message": {
                        "type": "string",
                        "maxLength": 1000
                    },
                    "subject": {
                        "type": "string",
                        "maxLength": 1000
                    }
                },
                "type": "object"
            },
            "UpdateMessageRequest": {
                "required": [
                    "chatId",
                    "messageId",
                    "message"
                ],
                "properties": {
                    "chatId": {
                        "type": "string",
                        "format": "uuid"
                    },
                    "messageId": {
                        "type": "string",
                        "format": "uuid"
                    },
                    "message": {
                        "type": "string",
                        "maxLength": 1000
                    },
                    "subject": {
                        "type": "string",
                        "maxLength": 1000
                    }
                },
                "type": "object"
            },
            "AbortInquiryProductionRequest": {
                "required": [
                    "inquiryId"
                ],
                "properties": {
                    "inquiryId": {
                        "type": "string",
                        "format": "uuid"
                    }
                },
                "type": "object"
            },
            "Inquiry": {
                "properties": {
                    "id": {
                        "type": "string"
                    },
                    "userId": {
                        "type": "string"
                    },
                    "pieceId": {
                        "type": "string"
                    },
                    "articleNumber": {
                        "type": "string"
                    },
                    "status": {
                        "type": "string"
                    },
                    "quantity": {
                        "type": "integer"
                    },
                    "purpose": {
                        "nullable": true,
                        "type": "string"
                    },
                    "requirements": {
                        "type": "array",
                        "items": {
                            "type": "string",
                            "example": "Color: red"
                        }
                    },
                    "offerIds": {
                        "type": "array",
                        "items": {
                            "type": "string",
                            "example": "uuid"
                        }
                    },
                    "offers": {
                        "type": "array",
                        "items": {
                            "$ref": "#\/components\/schemas\/Offer"
                        }
                    },
                    "createdAt": {
                        "type": "string",
                        "format": "date-time"
                    },
                    "updatedAt": {
                        "type": "string",
                        "format": "date-time"
                    },
                    "inExecutionAt": {
                        "type": "string",
                        "format": "date-time"
                    },
                    "productionStartedAt": {
                        "type": "string",
                        "format": "date-time"
                    },
                    "productionAbortedAt": {
                        "type": "string",
                        "format": "date-time"
                    },
                    "productionFinishedAt": {
                        "type": "string",
                        "format": "date-time"
                    },
                    "shippedAt": {
                        "type": "string",
                        "format": "date-time"
                    },
                    "completedAt": {
                        "type": "string",
                        "format": "date-time"
                    }
                },
                "type": "object"
            },
            "CloseInquiryRequest": {
                "required": [
                    "inquiryId"
                ],
                "properties": {
                    "inquiryId": {
                        "type": "string",
                        "format": "uuid"
                    }
                },
                "type": "object"
            },
            "StartInquiryProductionRequest": {
                "required": [
                    "inquiryId"
                ],
                "properties": {
                    "inquiryId": {
                        "type": "string",
                        "format": "uuid"
                    }
                },
                "type": "object"
            },
            "ReceiveInquiryRequest": {
                "required": [
                    "inquiryId"
                ],
                "properties": {
                    "inquiryId": {
                        "type": "string",
                        "format": "uuid"
                    }
                },
                "type": "object"
            },
            "ShipInquiryRequest": {
                "required": [
                    "inquiryId"
                ],
                "properties": {
                    "inquiryId": {
                        "type": "string",
                        "format": "uuid"
                    }
                },
                "type": "object"
            },
            "UpdateInquiryMetadataRequest": {
                "required": [
                    "inquiryId",
                    "quantity"
                ],
                "properties": {
                    "inquiryId": {
                        "type": "string",
                        "format": "uuid"
                    },
                    "quantity": {
                        "type": "int",
                        "maximum": 100,
                        "minimum": 0,
                        "example": "5"
                    },
                    "purpose": {
                        "type": "string",
                        "maxLength": 1000,
                        "example": "My old ones broke"
                    },
                    "requirements": {
                        "type": "array",
                        "items": {
                            "type": "string",
                            "maxLength": 1000
                        },
                        "example": "['Color: Red', 'Material: any']"
                    }
                },
                "type": "object"
            },
            "ChangeOfferRequest": {
                "required": [
                    "inquiryId",
                    "offerId",
                    "message",
                    "quantity"
                ],
                "properties": {
                    "inquiryId": {
                        "type": "string",
                        "format": "uuid"
                    },
                    "offerId": {
                        "type": "string",
                        "format": "uuid"
                    },
                    "message": {
                        "type": "string",
                        "maxLength": 1000
                    },
                    "quantity": {
                        "type": "int",
                        "maximum": 100,
                        "minimum": 1
                    }
                },
                "type": "object"
            },
            "Offer": {
                "properties": {
                    "id": {
                        "type": "string"
                    },
                    "status": {
                        "type": "string"
                    },
                    "userId": {
                        "type": "string"
                    },
                    "inquiryId": {
                        "type": "string"
                    },
                    "pieceId": {
                        "type": "string"
                    },
                    "message": {
                        "type": "string"
                    },
                    "quantity": {
                        "type": "integer"
                    },
                    "createdAt": {
                        "type": "string",
                        "format": "date-time"
                    },
                    "updatedAt": {
                        "type": "string",
                        "format": "date-time"
                    },
                    "acceptedAt": {
                        "type": "string",
                        "format": "date-time"
                    },
                    "rejectedAt": {
                        "type": "string",
                        "format": "date-time"
                    },
                    "withdrawnAt": {
                        "type": "string",
                        "format": "date-time"
                    }
                },
                "type": "object"
            },
            "CreateOfferRequest": {
                "required": [
                    "inquiryId",
                    "message",
                    "quantity"
                ],
                "properties": {
                    "inquiryId": {
                        "type": "string",
                        "format": "uuid"
                    },
                    "message": {
                        "type": "string",
                        "maxLength": 1000
                    },
                    "quantity": {
                        "type": "int",
                        "maximum": 100,
                        "minimum": 1
                    }
                },
                "type": "object"
            },
            "WithdrawOfferRequest": {
                "required": [
                    "inquiryId",
                    "offerId"
                ],
                "properties": {
                    "inquiryId": {
                        "type": "string",
                        "format": "uuid"
                    },
                    "offerId": {
                        "type": "string",
                        "format": "uuid"
                    }
                },
                "type": "object"
            },
            "ApprovePieceRequest": {
                "required": [
                    "id"
                ],
                "properties": {
                    "id": {
                        "type": "string",
                        "format": "uuid"
                    },
                    "message": {
                        "type": "string",
                        "maxLength": 2000
                    }
                },
                "type": "object"
            },
            "Piece": {
                "properties": {
                    "id": {
                        "type": "string"
                    },
                    "userId": {
                        "type": "string"
                    },
                    "articleNumber": {
                        "type": "string"
                    },
                    "status": {
                        "type": "string"
                    },
                    "name": {
                        "type": "string"
                    },
                    "summary": {
                        "nullable": true,
                        "type": "string"
                    },
                    "description": {
                        "nullable": true,
                        "type": "string"
                    },
                    "manufacturingNotes": {
                        "nullable": true,
                        "type": "string"
                    },
                    "licence": {
                        "nullable": true,
                        "type": "string"
                    },
                    "sourceUrl": {
                        "nullable": true,
                        "type": "string"
                    },
                    "categories": {
                        "type": "array",
                        "items": {
                            "properties": {
                                "id": {
                                    "type": "string",
                                    "example": "art-design"
                                },
                                "name": {
                                    "type": "string",
                                    "example": "Art & Design"
                                },
                                "description": {
                                    "type": "string",
                                    "example": "A nice description of the category"
                                },
                                "children": {
                                    "type": "array",
                                    "items": {
                                        "properties": {
                                            "id": {
                                                "type": "string",
                                                "example": "art-designn.sculptures"
                                            },
                                            "name": {
                                                "type": "string",
                                                "example": "Scultptures"
                                            },
                                            "description": {
                                                "type": "string",
                                                "example": "A nice description of the category"
                                            }
                                        }
                                    }
                                }
                            }
                        }
                    },
                    "createdAt": {
                        "type": "string",
                        "format": "date-time"
                    },
                    "updatedAt": {
                        "type": "string",
                        "format": "date-time"
                    }
                },
                "type": "object"
            },
            "BlockPieceRequest": {
                "required": [
                    "id"
                ],
                "properties": {
                    "id": {
                        "type": "string",
                        "format": "uuid"
                    },
                    "message": {
                        "type": "string",
                        "maxLength": 2000
                    }
                },
                "type": "object"
            },
            "CreatePieceRequest": {
                "required": [
                    "name"
                ],
                "properties": {
                    "name": {
                        "type": "string",
                        "maxLength": 255,
                        "minLength": 3
                    }
                },
                "type": "object"
            },
            "PieceStatusHistory": {
                "properties": {
                    "id": {
                        "type": "string"
                    },
                    "userId": {
                        "type": "string"
                    },
                    "articleNumber": {
                        "type": "string"
                    },
                    "statusChanges": {
                        "type": "array",
                        "items": {
                            "$ref": "#\/components\/schemas\/PieceStatusChange"
                        }
                    }
                },
                "type": "object"
            },
            "RejectPieceRequest": {
                "required": [
                    "id",
                    "message"
                ],
                "properties": {
                    "id": {
                        "type": "string",
                        "format": "uuid"
                    },
                    "message": {
                        "type": "string",
                        "maxLength": 2000
                    }
                },
                "type": "object"
            },
            "RequestReviewRequest": {
                "required": [
                    "id"
                ],
                "properties": {
                    "id": {
                        "type": "string",
                        "format": "uuid"
                    },
                    "message": {
                        "type": "string",
                        "maxLength": 2000
                    }
                },
                "type": "object"
            },
            "UpdateMetadataRequest": {
                "required": [
                    "id",
                    "name",
                    "summary"
                ],
                "properties": {
                    "id": {
                        "type": "string",
                        "format": "uuid"
                    },
                    "name": {
                        "type": "string",
                        "maxLength": 255,
                        "minLength": 3
                    },
                    "summary": {
                        "type": "string",
                        "maxLength": 2000,
                        "minLength": 25
                    },
                    "description": {
                        "type": "string",
                        "maxLength": 10000
                    },
                    "manufacturingNotes": {
                        "type": "string",
                        "maxLength": 10000
                    },
                    "licence": {
                        "type": "string",
                        "maxLength": 10000
                    },
                    "sourceUrl": {
                        "type": "string"
                    }
                },
                "type": "object"
            },
            "LoginRequest": {
                "required": [
                    "username",
                    "password"
                ],
                "properties": {
                    "username": {
                        "type": "string"
                    },
                    "password": {
                        "type": "string"
                    }
                },
                "type": "object"
            },
            "LoginResponse": {
                "properties": {
                    "code": {
                        "type": "integer"
                    },
                    "message": {
                        "type": "string"
                    },
                    "data": {
                        "type": "array",
                        "items": {
                            "properties": {
                                "token": {
                                    "type": "string"
                                }
                            }
                        }
                    }
                },
                "type": "object"
            },
            "CartItem": {
                "properties": {
                    "pieceId": {
                        "type": "string"
                    },
                    "quantity": {
                        "type": "integer"
                    },
                    "purpose": {
                        "nullable": true,
                        "type": "string"
                    },
                    "requirements": {
                        "type": "array",
                        "items": {
                            "type": "string"
                        },
                        "example": "['Color: Red', 'Material: any']"
                    }
                },
                "type": "object"
            },
            "PieceStatusChange": {
                "properties": {
                    "status": {
                        "type": "string"
                    },
                    "updatedAt": {
                        "type": "string",
                        "format": "date-time"
                    },
                    "message": {
                        "nullable": true,
                        "type": "string"
                    }
                },
                "type": "object"
            }
        },
        "securitySchemes": {
            "Bearer": {
                "type": "http",
                "bearerFormat": "JWT",
                "scheme": "bearer"
            }
        }
    }
}
